<?xml version="1.0" encoding="utf-8"?>
<!-- Generator: Adobe Illustrator 15.0.0, SVG Export Plug-In . SVG Version: 6.00 Build 0)  -->
<!DOCTYPE svg PUBLIC "-//W3C//DTD SVG 1.1//EN" "http://www.w3.org/Graphics/SVG/1.1/DTD/svg11.dtd">
<svg version="1.1" id="Layer_1" xmlns="http://www.w3.org/2000/svg" xmlns:xlink="http://www.w3.org/1999/xlink" x="0px" y="0px"
	 width="504.497px" height="205.02px" viewBox="38.104 16 504.497 205.02" enable-background="new 38.104 16 504.497 205.02"
	 xml:space="preserve">
<g>
	<g>
		<g>
			<g>
				<g>
					<defs>
						<rect id="SVGID_1_" width="575.923" height="221.02"/>
					</defs>
					<clipPath id="SVGID_2_">
						<use xlink:href="#SVGID_1_"  overflow="visible"/>
					</clipPath>
					<path clip-path="url(#SVGID_2_)" fill="#E5894A" d="M540.531,110.195l-67.467-92.861c-0.439-0.603-1.217-0.858-1.924-0.625
						l-109.166,35.47c-0.707,0.23-1.188,0.89-1.188,1.635v28.604h3.438V55.063l106.791-34.698l65.998,90.84l-65.998,90.841
						l-106.789-34.698v-26.111h-3.438v27.361c0,0.744,0.479,1.403,1.188,1.633l109.164,35.474c0.178,0.058,0.355,0.084,0.531,0.084
						c0.537,0,1.063-0.259,1.393-0.707l67.467-92.861C540.968,111.613,540.968,110.797,540.531,110.195"/>
				</g>
			</g>
		</g>
	</g>
	<g>
		<g>
			<g>
				<g>
					<defs>
						<rect id="SVGID_3_" width="575.923" height="221.02"/>
					</defs>
					<clipPath id="SVGID_4_">
						<use xlink:href="#SVGID_3_"  overflow="visible"/>
					</clipPath>
					<path clip-path="url(#SVGID_4_)" fill="#A8A8A8" d="M38.104,89.815c0-0.65,0.52-1.237,1.236-1.237h26.932
						c0.716,0,1.236,0.587,1.236,1.237v7.09c0,0.651-0.52,1.237-1.236,1.237h-18.02v8.065h14.832c0.65,0,1.235,0.586,1.235,1.235
						v7.092c0,0.715-0.585,1.236-1.235,1.236H48.252v8.783h18.019c0.716,0,1.236,0.584,1.236,1.23v7.093
						c0,0.647-0.52,1.233-1.236,1.233H39.339c-0.716,0-1.236-0.588-1.236-1.233L38.104,89.815L38.104,89.815z"/>
				</g>
			</g>
		</g>
	</g>
	<g>
		<g>
			<g>
				<g>
					<defs>
						<rect id="SVGID_5_" width="575.923" height="221.02"/>
					</defs>
					<clipPath id="SVGID_6_">
						<use xlink:href="#SVGID_5_"  overflow="visible"/>
					</clipPath>
					<path clip-path="url(#SVGID_6_)" fill="#A8A8A8" d="M85.989,89.815c0-0.65,0.52-1.237,1.235-1.237h7.742
						c0.651,0,1.236,0.587,1.236,1.237v34.74h15.483c0.716,0,1.236,0.584,1.236,1.233v7.093c0,0.649-0.52,1.234-1.236,1.234H87.224
						c-0.715,0-1.235-0.586-1.235-1.234V89.815z"/>
				</g>
			</g>
		</g>
	</g>
	<g>
		<g>
			<g>
				<g>
					<defs>
						<rect id="SVGID_7_" width="575.923" height="221.02"/>
					</defs>
					<clipPath id="SVGID_8_">
						<use xlink:href="#SVGID_7_"  overflow="visible"/>
					</clipPath>
					<path clip-path="url(#SVGID_8_)" fill="#A8A8A8" d="M128.993,89.815c0-0.65,0.52-1.237,1.236-1.237h26.932
						c0.716,0,1.236,0.587,1.236,1.237v7.09c0,0.651-0.52,1.237-1.236,1.237h-18.019v8.065h14.832c0.65,0,1.235,0.586,1.235,1.235
						v7.092c0,0.715-0.585,1.236-1.235,1.236h-14.832v8.783h18.019c0.716,0,1.236,0.584,1.236,1.23v7.093
						c0,0.647-0.52,1.233-1.236,1.233h-26.932c-0.716,0-1.236-0.588-1.236-1.233V89.815L128.993,89.815z"/>
				</g>
			</g>
		</g>
	</g>
	<g>
		<g>
			<g>
				<g>
					<defs>
						<rect id="SVGID_9_" width="575.923" height="221.02"/>
					</defs>
					<clipPath id="SVGID_10_">
						<use xlink:href="#SVGID_9_"  overflow="visible"/>
					</clipPath>
					<path clip-path="url(#SVGID_10_)" fill="#A8A8A8" d="M181.367,88.969c0.065-0.585,0.65-1.041,1.171-1.041h1.041
						c0.325,0,0.911,0.26,1.105,0.651l15.093,28.104h0.131L215,88.579c0.194-0.391,0.781-0.651,1.106-0.651h1.041
						c0.52,0,1.106,0.456,1.17,1.041l7.351,43.717c0.131,0.849-0.454,1.434-1.235,1.434h-7.677c-0.585,0-1.171-0.521-1.236-1.04
						l-2.927-20.104h-0.131l-10.928,21.075c-0.196,0.392-0.781,0.718-1.106,0.718h-1.172c-0.39,0-0.91-0.326-1.105-0.718
						l-10.995-21.075h-0.129l-2.863,20.104c-0.065,0.521-0.585,1.04-1.236,1.04h-7.676c-0.781,0-1.367-0.585-1.236-1.434
						L181.367,88.969z"/>
				</g>
			</g>
		</g>
	</g>
	<g>
		<g>
			<g>
				<g>
					<defs>
						<rect id="SVGID_11_" width="575.923" height="221.02"/>
					</defs>
					<clipPath id="SVGID_12_">
						<use xlink:href="#SVGID_11_"  overflow="visible"/>
					</clipPath>
					<path clip-path="url(#SVGID_12_)" fill="#A8A8A8" d="M243.761,89.815c0-0.65,0.52-1.237,1.236-1.237h26.932
						c0.716,0,1.234,0.587,1.234,1.237v7.09c0,0.651-0.521,1.237-1.234,1.237h-18.02v8.065h14.832c0.648,0,1.233,0.586,1.233,1.235
						v7.092c0,0.715-0.585,1.236-1.233,1.236H253.91v8.783h18.02c0.716,0,1.234,0.584,1.234,1.23v7.093
						c0,0.647-0.521,1.233-1.234,1.233h-26.932c-0.716,0-1.236-0.588-1.236-1.233L243.761,89.815L243.761,89.815z"/>
				</g>
			</g>
		</g>
	</g>
	<g>
		<g>
			<g>
				<g>
					<defs>
						<rect id="SVGID_13_" width="575.923" height="221.02"/>
					</defs>
					<clipPath id="SVGID_14_">
						<use xlink:href="#SVGID_13_"  overflow="visible"/>
					</clipPath>
					<path clip-path="url(#SVGID_14_)" fill="#A8A8A8" d="M291.582,89.099c0-0.65,0.586-1.171,1.234-1.171h1.627l25.957,24.98h0.063
						V89.815c0-0.651,0.521-1.237,1.236-1.237h7.807c0.65,0,1.234,0.586,1.234,1.237v43.781c0,0.65-0.584,1.17-1.234,1.17h-1.041
						c-0.197,0-0.717-0.19-0.846-0.324l-25.697-25.823h-0.064v24.265c0,0.65-0.521,1.236-1.232,1.236h-7.742
						c-0.649,0-1.233-0.586-1.233-1.236L291.582,89.099z"/>
				</g>
			</g>
		</g>
	</g>
	<g>
		<g>
			<g>
				<g>
					<defs>
						<rect id="SVGID_15_" width="575.923" height="221.02"/>
					</defs>
					<clipPath id="SVGID_16_">
						<use xlink:href="#SVGID_15_"  overflow="visible"/>
					</clipPath>
					<path clip-path="url(#SVGID_16_)" fill="#A8A8A8" d="M357.552,98.143h-9.303c-0.717,0-1.236-0.586-1.236-1.237v-7.09
						c0-0.65,0.521-1.237,1.236-1.237h28.885c0.713,0,1.234,0.587,1.234,1.237v7.09c0,0.651-0.521,1.237-1.234,1.237h-9.305v34.738
						c0,0.65-0.586,1.235-1.234,1.235h-7.809c-0.65,0-1.234-0.585-1.234-1.235V98.143z"/>
				</g>
			</g>
		</g>
	</g>
	<g>
		<g>
			<g>
				<g>
					<defs>
						<rect id="SVGID_17_" width="575.923" height="221.02"/>
					</defs>
					<clipPath id="SVGID_18_">
						<use xlink:href="#SVGID_17_"  overflow="visible"/>
					</clipPath>
					<path clip-path="url(#SVGID_18_)" fill="#E5894A" d="M430.292,94.798c2.945,0.306,5.533,0.416,8.629,0.416
						c0.541,0,1.096-0.004,1.672-0.009c7.5-0.075,14.004-2.567,17.674-3.859c4.748-1.671,8.561-3.741,11.459-6.089
						c2.908-2.348,4.996-4.734,6.271-7.162c1.27-2.428,1.91-4.318,1.91-5.673c0-0.555-0.121-1.054-0.359-1.492
						c-0.232-0.435-0.834-0.734-1.789-0.894c-2.549,0.877-5.951,1.651-10.205,2.329c-4.26,0.674-8.938,1.013-14.025,1.013
						c-1.99,0-4.379-0.119-7.162-0.359c-2.787-0.239-5.574-0.538-8.357-0.893c-2.787-0.359-5.371-0.718-7.76-1.076
						c-2.389-0.359-4.219-0.695-5.49-1.014c-0.24,0-0.559,0.06-0.957,0.18c-0.395,0.119-0.678,0.415-0.834,0.893
						c-0.639,3.821-1.596,9.215-2.867,16.178c-1.27,6.965-3.342,15.539-6.209,25.724c0,0.479,0.16,0.856,0.48,1.136
						c0.318,0.28,0.674,0.418,1.076,0.418c0.713,0,1.564-0.274,2.563-0.836c0.996-0.555,2.23-1.189,3.699-1.91
						c1.473-0.717,3.264-1.353,5.375-1.907c2.107-0.558,4.596-0.834,7.461-0.834c4.615,0,7.881,1.313,9.789,3.938
						c1.91,2.629,2.863,5.935,2.863,9.907c0,2.55-0.199,5.554-0.6,9.017c-0.398,3.463-1.15,6.766-2.268,9.91
						c-1.115,3.144-2.707,5.811-4.775,7.994c-2.066,2.19-4.473,3.203-7.893,3.203c-0.398,0-1.244-0.038-2.158-0.156
						c-0.645-0.084-1.344-0.213-2.02-0.361h-0.002c-3.053-0.637-5.158-1.094-7.197-1.901c-0.574-0.229-1.32-0.565-1.855-0.805
						v-0.005c-1.9-0.81-3.422-1.838-4.563-2.834c-1.262-1.096-2.158-2.215-2.818-3.521c-0.004-0.011-0.01-0.021-0.018-0.033
						c-0.035-0.07-0.07-0.143-0.104-0.216c-0.447-1.005,1.498-1.459,1.502-1.46l15.465-3.248c0,0.001,0,0.002,0,0.002l1.521-0.293
						c2.223-0.439,2.133-2.438,2.104-2.775c-0.406-2.676-1.549-4.881-3.449-6.604c-2.428-2.188-4.986-3.281-8.809-3.281
						c-3.74,0-6.846,1.191-9.313,3.581s-3.941,5.438-3.902,9.175c0.021,2.09,0.311,3.657,0.988,5.438
						c0.877,2.292,2.199,4.229,4.35,6.103c2.148,1.873,5.232,3.426,9.252,4.654c4.018,1.229,9.451,1.854,16.293,1.854
						c7.961,0,14.566-0.797,19.818-2.392c5.252-1.592,9.432-3.681,12.535-6.266c3.104-2.591,5.27-5.494,6.506-8.72
						c1.232-3.222,1.852-6.506,1.852-9.849c0-3.581-0.734-6.884-2.205-9.909c-1.479-3.021-3.605-5.609-6.391-7.761
						c-2.787-2.147-6.168-3.819-10.146-5.013c-3.98-1.193-8.479-1.79-13.49-1.79c-4.617,0-9.115,0.358-13.49,1.073
						c-4.377,0.717-8.713,2.026-13.012,3.938l3.861-16.534C423.869,93.849,427.052,94.461,430.292,94.798 M421.826,87.968
						c1.033-5.66,1.842-10.187,2.451-13.735c0.979,0.183,2.107,0.37,3.402,0.564c2.414,0.363,5.057,0.728,7.846,1.087
						c2.842,0.364,5.707,0.67,8.514,0.911c2.877,0.247,5.395,0.373,7.486,0.373c5.262,0,10.18-0.357,14.621-1.061
						c2.787-0.444,5.205-0.923,7.301-1.449c-0.201,0.47-0.465,1.026-0.811,1.678c-1.02,1.952-2.803,3.962-5.295,5.975
						c-2.559,2.069-6.045,3.91-10.365,5.471l-0.113,0.042c-3.271,1.155-9.355,3.471-16.313,3.591c-0.563,0.01-1.104,0.01-1.631,0.01
						c-3.102,0-5.563-0.119-8.238-0.397c-2.709-0.281-5.592-0.785-9.066-1.586l-0.064-0.015
						C421.648,88.933,421.738,88.446,421.826,87.968 M407.867,137.415c0.004-0.063,0.012-0.124,0.018-0.187
						c0.01-0.101,0.021-0.192,0.029-0.295c0.254-1.934,1.135-3.598,2.67-5.082c1.75-1.691,3.934-2.518,6.68-2.518
						c2.875,0,4.545,0.755,6.27,2.307c0.586,0.528,1.047,1.131,1.41,1.797c0.145,0.357,0.504,1.459-0.441,1.646l-15.119,3.021
						c0,0-1.547,0.271-1.477,1.231C407.902,139.336,407.777,138.568,407.867,137.415 M443.406,108.445
						c4.619,0,8.791,0.55,12.398,1.632c3.518,1.053,6.52,2.528,8.92,4.382c2.342,1.805,4.07,3.904,5.301,6.417
						c1.229,2.524,1.82,5.224,1.82,8.253c0,2.86-0.539,5.719-1.602,8.494c-0.99,2.596-2.805,5.005-5.389,7.158
						c-2.701,2.248-6.477,4.115-11.213,5.551c-3.658,1.109-8.121,1.809-13.313,2.087c2.41-2.555,4.285-5.687,5.572-9.312
						c1.197-3.396,2.023-7.008,2.457-10.739c0.414-3.593,0.623-6.771,0.623-9.448c0-4.777-1.207-8.861-3.594-12.14
						c-0.645-0.884-1.387-1.663-2.225-2.335C443.25,108.445,443.328,108.445,443.406,108.445"/>
				</g>
			</g>
		</g>
	</g>
</g>
</svg>
