<?xml version="1.0" encoding="utf-8"?>
<!-- Generator: Adobe Illustrator 15.0.0, SVG Export Plug-In . SVG Version: 6.00 Build 0)  -->
<!DOCTYPE svg PUBLIC "-//W3C//DTD SVG 1.1//EN" "http://www.w3.org/Graphics/SVG/1.1/DTD/svg11.dtd">
<svg version="1.1" id="SvgjsSvg1041" xmlns:svgjs="http://svgjs.com/svgjs"
	 xmlns="http://www.w3.org/2000/svg" xmlns:xlink="http://www.w3.org/1999/xlink" x="0px" y="0px" width="32px" height="32px"
	 viewBox="0 0 32 32" enable-background="new 0 0 32 32" xml:space="preserve">
<title>Fill 1</title>
<desc>Created with Avocode.</desc>
<path id="SvgjsPath1043" fill="#1D2336" d="M9.2,0.09C7.53,0.17,6.39,0.44,5.4,0.82c-1.03,0.4-1.9,0.94-2.77,1.81
	S1.22,4.38,0.82,5.41c-0.39,1-0.65,2.14-0.73,3.8C0.02,10.89,0,11.42,0,15.68c0,4.259,0.02,4.79,0.09,6.46
	c0.08,1.67,0.34,2.81,0.73,3.81c0.4,1.03,0.94,1.909,1.81,2.78c0.87,0.869,1.74,1.41,2.77,1.81c0.99,0.38,2.13,0.649,3.8,0.72
	c1.66,0.08,2.2,0.1,6.45,0.1c4.25,0,4.78-0.02,6.45-0.1c1.66-0.07,2.801-0.34,3.801-0.72c1.02-0.399,1.899-0.94,2.77-1.81
	c0.87-0.871,1.4-1.75,1.801-2.78c0.389-1,0.649-2.14,0.729-3.81c0.079-1.671,0.09-2.201,0.09-6.46c0-4.26-0.011-4.79-0.09-6.47
	c-0.08-1.66-0.341-2.8-0.729-3.8c-0.4-1.03-0.931-1.91-1.801-2.78s-1.75-1.41-2.77-1.81c-1-0.38-2.141-0.65-3.801-0.73
	C20.43,0.02,19.9,0,15.65,0C11.4,0,10.86,0.02,9.2,0.09z M21.971,2.92c1.52,0.07,2.35,0.32,2.899,0.54
	c0.729,0.28,1.26,0.62,1.8,1.17c0.551,0.55,0.891,1.07,1.17,1.8c0.221,0.55,0.471,1.38,0.54,2.91c0.08,1.66,0.091,2.15,0.091,6.34
	s-0.011,4.679-0.091,6.339c-0.069,1.521-0.319,2.351-0.54,2.91c-0.279,0.73-0.619,1.25-1.17,1.801c-0.54,0.55-1.07,0.89-1.8,1.17
	c-0.55,0.22-1.38,0.47-2.899,0.539c-1.65,0.08-2.15,0.091-6.321,0.091c-4.18,0-4.68-0.011-6.33-0.091
	C7.8,28.37,6.97,28.12,6.42,27.9c-0.73-0.28-1.25-0.62-1.8-1.17c-0.55-0.551-0.89-1.07-1.17-1.801c-0.22-0.56-0.47-1.39-0.54-2.91
	c-0.07-1.66-0.09-2.149-0.09-6.339S2.84,11,2.91,9.34c0.07-1.53,0.32-2.36,0.54-2.91c0.28-0.73,0.62-1.25,1.17-1.8
	c0.55-0.55,1.07-0.89,1.8-1.17c0.55-0.22,1.38-0.47,2.9-0.54c1.65-0.08,2.15-0.09,6.33-0.09C19.82,2.83,20.32,2.84,21.971,2.92z"/>
<path id="SvgjsPath1044" fill="#1D2336" d="M10.82,15.05c0-2.88,2.33-5.22,5.21-5.22c2.89,0,5.22,2.34,5.22,5.22
	c0,2.89-2.33,5.23-5.22,5.23C13.15,20.28,10.82,17.939,10.82,15.05z M8,15.05c0,4.45,3.6,8.05,8.03,8.05
	c4.441,0,8.041-3.6,8.041-8.05c0-4.45-3.6-8.05-8.041-8.05C11.6,7,8,10.6,8,15.05z"/>
<path id="SvgjsPath1045" fill="#1D2336" d="M25.76,6.88c0,1.04-0.85,1.88-1.88,1.88C22.84,8.76,22,7.92,22,6.88S22.84,5,23.88,5
	C24.91,5,25.76,5.84,25.76,6.88"/>
</svg>
